_1790_chap_5/_1790_chap_5/simulation/qsim/_1790_chap_5.msim.vcd
$comment
	File created using the following command:
		vcd file _1790_chap_5.msim.vcd -direction
$end
$date
	Wed Apr 24 20:22:53 2024
$end
$version
	ModelSim Version 10.5b
$end
$timescale
	1ps
$end

$scope module _1790_chap_5_vlg_vec_tst $end
$var reg 1 ! clk_in $end
$var reg 1 " rstn $end
$var reg 1 # sel $end
$var wire 1 $ clk_out [1] $end
$var wire 1 % clk_out [0] $end

$scope module i1 $end
$var wire 1 & gnd $end
$var wire 1 ' vcc $end
$var wire 1 ( unknown $end
$var tri1 1 ) devclrn $end
$var tri1 1 * devpor $end
$var tri1 1 + devoe $end
$var wire 1 , clk_out[0]~output_o $end
$var wire 1 - clk_out[1]~output_o $end
$var wire 1 . clk_in~input_o $end
$var wire 1 / clk_in~inputclkctrl_outclk $end
$var wire 1 0 cnt[0]~32_combout $end
$var wire 1 1 rstn~input_o $end
$var wire 1 2 rstn~inputclkctrl_outclk $end
$var wire 1 3 clk_out[0]~1_combout $end
$var wire 1 4 LessThan3~4_combout $end
$var wire 1 5 LessThan3~6_combout $end
$var wire 1 6 LessThan3~7_combout $end
$var wire 1 7 LessThan3~5_combout $end
$var wire 1 8 LessThan3~8_combout $end
$var wire 1 9 LessThan3~0_combout $end
$var wire 1 : LessThan3~1_combout $end
$var wire 1 ; LessThan3~2_combout $end
$var wire 1 < LessThan3~3_combout $end
$var wire 1 = LessThan5~0_combout $end
$var wire 1 > LessThan5~1_combout $end
$var wire 1 ? LessThan5~2_combout $end
$var wire 1 @ LessThan5~3_combout $end
$var wire 1 A cnt~58_combout $end
$var wire 1 B cnt[0]~33 $end
$var wire 1 C cnt[1]~34_combout $end
$var wire 1 D cnt[1]~35 $end
$var wire 1 E cnt[2]~36_combout $end
$var wire 1 F cnt[2]~37 $end
$var wire 1 G cnt[3]~38_combout $end
$var wire 1 H cnt[3]~39 $end
$var wire 1 I cnt[4]~40_combout $end
$var wire 1 J cnt[4]~41 $end
$var wire 1 K cnt[5]~42_combout $end
$var wire 1 L cnt[5]~43 $end
$var wire 1 M cnt[6]~44_combout $end
$var wire 1 N cnt[6]~45 $end
$var wire 1 O cnt[7]~46_combout $end
$var wire 1 P cnt[7]~47 $end
$var wire 1 Q cnt[8]~48_combout $end
$var wire 1 R cnt[8]~49 $end
$var wire 1 S cnt[9]~50_combout $end
$var wire 1 T cnt[9]~51 $end
$var wire 1 U cnt[10]~52_combout $end
$var wire 1 V cnt[10]~53 $end
$var wire 1 W cnt[11]~54_combout $end
$var wire 1 X cnt[11]~55 $end
$var wire 1 Y cnt[12]~56_combout $end
$var wire 1 Z cnt[12]~57 $end
$var wire 1 [ cnt[13]~59_combout $end
$var wire 1 \ cnt[13]~60 $end
$var wire 1 ] cnt[14]~61_combout $end
$var wire 1 ^ cnt[14]~62 $end
$var wire 1 _ cnt[15]~63_combout $end
$var wire 1 ` cnt[15]~64 $end
$var wire 1 a cnt[16]~65_combout $end
$var wire 1 b cnt[16]~66 $end
$var wire 1 c cnt[17]~67_combout $end
$var wire 1 d cnt[17]~68 $end
$var wire 1 e cnt[18]~69_combout $end
$var wire 1 f cnt[18]~70 $end
$var wire 1 g cnt[19]~71_combout $end
$var wire 1 h cnt[19]~72 $end
$var wire 1 i cnt[20]~73_combout $end
$var wire 1 j cnt[20]~74 $end
$var wire 1 k cnt[21]~75_combout $end
$var wire 1 l cnt[21]~76 $end
$var wire 1 m cnt[22]~77_combout $end
$var wire 1 n cnt[22]~78 $end
$var wire 1 o cnt[23]~79_combout $end
$var wire 1 p cnt[23]~80 $end
$var wire 1 q cnt[24]~81_combout $end
$var wire 1 r cnt[24]~82 $end
$var wire 1 s cnt[25]~83_combout $end
$var wire 1 t cnt[25]~84 $end
$var wire 1 u cnt[26]~85_combout $end
$var wire 1 v cnt[26]~86 $end
$var wire 1 w cnt[27]~87_combout $end
$var wire 1 x cnt[27]~88 $end
$var wire 1 y cnt[28]~89_combout $end
$var wire 1 z cnt[28]~90 $end
$var wire 1 { cnt[29]~91_combout $end
$var wire 1 | cnt[29]~92 $end
$var wire 1 } cnt[30]~93_combout $end
$var wire 1 ~ cnt[30]~94 $end
$var wire 1 !! cnt[31]~95_combout $end
$var wire 1 "! clk_out[0]~0_combout $end
$var wire 1 #! clk_out[0]~2_combout $end
$var wire 1 $! clk_out[0]~3_combout $end
$var wire 1 %! clk_out[0]~reg0_q $end
$var wire 1 &! cnt2[0]~34_combout $end
$var wire 1 '! LessThan6~1_combout $end
$var wire 1 (! LessThan0~0_combout $end
$var wire 1 )! clk_out~7_combout $end
$var wire 1 *! clk_out~8_combout $end
$var wire 1 +! clk_out~5_combout $end
$var wire 1 ,! clk_out~6_combout $end
$var wire 1 -! clk_out~4_combout $end
$var wire 1 .! always0~0_combout $end
$var wire 1 /! LessThan8~0_combout $end
$var wire 1 0! always0~1_combout $end
$var wire 1 1! always0~2_combout $end
$var wire 1 2! always0~3_combout $end
$var wire 1 3! always0~4_combout $end
$var wire 1 4! sel~input_o $end
$var wire 1 5! LessThan6~0_combout $end
$var wire 1 6! LessThan6~2_combout $end
$var wire 1 7! LessThan6~3_combout $end
$var wire 1 8! cnt2~32_combout $end
$var wire 1 9! clk_out~9_combout $end
$var wire 1 :! always0~6_combout $end
$var wire 1 ;! always0~5_combout $end
$var wire 1 <! always0~7_combout $end
$var wire 1 =! always0~8_combout $end
$var wire 1 >! always0~9_combout $end
$var wire 1 ?! always0~10_combout $end
$var wire 1 @! cnt2~70_combout $end
$var wire 1 A! cnt2~71_combout $end
$var wire 1 B! cnt2[0]~35 $end
$var wire 1 C! cnt2[1]~36_combout $end
$var wire 1 D! cnt2[1]~37 $end
$var wire 1 E! cnt2[2]~38_combout $end
$var wire 1 F! cnt2[2]~39 $end
$var wire 1 G! cnt2[3]~40_combout $end
$var wire 1 H! cnt2[3]~41 $end
$var wire 1 I! cnt2[4]~42_combout $end
$var wire 1 J! cnt2[4]~43 $end
$var wire 1 K! cnt2[5]~44_combout $end
$var wire 1 L! cnt2[5]~45 $end
$var wire 1 M! cnt2[6]~46_combout $end
$var wire 1 N! cnt2[6]~47 $end
$var wire 1 O! cnt2[7]~48_combout $end
$var wire 1 P! cnt2[7]~49 $end
$var wire 1 Q! cnt2[8]~50_combout $end
$var wire 1 R! cnt2[8]~51 $end
$var wire 1 S! cnt2[9]~52_combout $end
$var wire 1 T! cnt2[9]~53 $end
$var wire 1 U! cnt2[10]~54_combout $end
$var wire 1 V! cnt2[10]~55 $end
$var wire 1 W! cnt2[11]~56_combout $end
$var wire 1 X! cnt2[11]~57 $end
$var wire 1 Y! cnt2[12]~58_combout $end
$var wire 1 Z! cnt2[12]~59 $end
$var wire 1 [! cnt2[13]~60_combout $end
$var wire 1 \! cnt2[13]~61 $end
$var wire 1 ]! cnt2[14]~62_combout $end
$var wire 1 ^! cnt2[14]~63 $end
$var wire 1 _! cnt2[15]~64_combout $end
$var wire 1 `! cnt2[15]~65 $end
$var wire 1 a! cnt2[16]~66_combout $end
$var wire 1 b! cnt2[16]~67 $end
$var wire 1 c! cnt2[17]~68_combout $end
$var wire 1 d! cnt2[17]~69 $end
$var wire 1 e! cnt2[18]~72_combout $end
$var wire 1 f! cnt2[18]~73 $end
$var wire 1 g! cnt2[19]~74_combout $end
$var wire 1 h! cnt2[19]~75 $end
$var wire 1 i! cnt2[20]~76_combout $end
$var wire 1 j! cnt2[20]~77 $end
$var wire 1 k! cnt2[21]~78_combout $end
$var wire 1 l! cnt2[21]~79 $end
$var wire 1 m! cnt2[22]~80_combout $end
$var wire 1 n! cnt2[22]~81 $end
$var wire 1 o! cnt2[23]~82_combout $end
$var wire 1 p! cnt2[23]~83 $end
$var wire 1 q! cnt2[24]~84_combout $end
$var wire 1 r! cnt2[24]~85 $end
$var wire 1 s! cnt2[25]~86_combout $end
$var wire 1 t! cnt2[25]~87 $end
$var wire 1 u! cnt2[26]~88_combout $end
$var wire 1 v! cnt2[26]~89 $end
$var wire 1 w! cnt2[27]~90_combout $end
$var wire 1 x! cnt2[27]~91 $end
$var wire 1 y! cnt2[28]~92_combout $end
$var wire 1 z! cnt2[28]~93 $end
$var wire 1 {! cnt2[29]~94_combout $end
$var wire 1 |! cnt2[29]~95 $end
$var wire 1 }! cnt2[30]~96_combout $end
$var wire 1 ~! cnt2[30]~97 $end
$var wire 1 !" cnt2[31]~98_combout $end
$var wire 1 "" cnt2~33_combout $end
$var wire 1 #" clk_out~10_combout $end
$var wire 1 $" clk_out~11_combout $end
$var wire 1 %" clk_out~12_combout $end
$var wire 1 &" clk_out[1]~reg0_q $end
$var wire 1 '" cnt [31] $end
$var wire 1 (" cnt [30] $end
$var wire 1 )" cnt [29] $end
$var wire 1 *" cnt [28] $end
$var wire 1 +" cnt [27] $end
$var wire 1 ," cnt [26] $end
$var wire 1 -" cnt [25] $end
$var wire 1 ." cnt [24] $end
$var wire 1 /" cnt [23] $end
$var wire 1 0" cnt [22] $end
$var wire 1 1" cnt [21] $end
$var wire 1 2" cnt [20] $end
$var wire 1 3" cnt [19] $end
$var wire 1 4" cnt [18] $end
$var wire 1 5" cnt [17] $end
$var wire 1 6" cnt [16] $end
$var wire 1 7" cnt [15] $end
$var wire 1 8" cnt [14] $end
$var wire 1 9" cnt [13] $end
$var wire 1 :" cnt [12] $end
$var wire 1 ;" cnt [11] $end
$var wire 1 <" cnt [10] $end
$var wire 1 =" cnt [9] $end
$var wire 1 >" cnt [8] $end
$var wire 1 ?" cnt [7] $end
$var wire 1 @" cnt [6] $end
$var wire 1 A" cnt [5] $end
$var wire 1 B" cnt [4] $end
$var wire 1 C" cnt [3] $end
$var wire 1 D" cnt [2] $end
$var wire 1 E" cnt [1] $end
$var wire 1 F" cnt [0] $end
$var wire 1 G" cnt2 [31] $end
$var wire 1 H" cnt2 [30] $end
$var wire 1 I" cnt2 [29] $end
$var wire 1 J" cnt2 [28] $end
$var wire 1 K" cnt2 [27] $end
$var wire 1 L" cnt2 [26] $end
$var wire 1 M" cnt2 [25] $end
$var wire 1 N" cnt2 [24] $end
$var wire 1 O" cnt2 [23] $end
$var wire 1 P" cnt2 [22] $end
$var wire 1 Q" cnt2 [21] $end
$var wire 1 R" cnt2 [20] $end
$var wire 1 S" cnt2 [19] $end
$var wire 1 T" cnt2 [18] $end
$var wire 1 U" cnt2 [17] $end
$var wire 1 V" cnt2 [16] $end
$var wire 1 W" cnt2 [15] $end
$var wire 1 X" cnt2 [14] $end
$var wire 1 Y" cnt2 [13] $end
$var wire 1 Z" cnt2 [12] $end
$var wire 1 [" cnt2 [11] $end
$var wire 1 \" cnt2 [10] $end
$var wire 1 ]" cnt2 [9] $end
$var wire 1 ^" cnt2 [8] $end
$var wire 1 _" cnt2 [7] $end
$var wire 1 `" cnt2 [6] $end
$var wire 1 a" cnt2 [5] $end
$var wire 1 b" cnt2 [4] $end
$var wire 1 c" cnt2 [3] $end
$var wire 1 d" cnt2 [2] $end
$var wire 1 e" cnt2 [1] $end
$var wire 1 f" cnt2 [0] $end
$upscope $end
$upscope $end
$enddefinitions $end
#0
$dumpvars
1!
0"
0#
0%
0$
0&
1'
x(
1)
1*
1+
0,
0-
1.
1/
10
01
02
13
14
15
16
17
18
09
1:
0;
1<
1=
0>
0?
1@
0A
0B
0C
1D
0E
0F
0G
1H
0I
0J
0K
1L
0M
0N
0O
1P
0Q
0R
0S
1T
0U
0V
0W
1X
0Y
0Z
0[
1\
0]
0^
0_
1`
0a
0b
0c
1d
0e
0f
0g
1h
0i
0j
0k
1l
0m
0n
0o
1p
0q
0r
0s
1t
0u
0v
0w
1x
0y
0z
0{
1|
0}
0~
0!!
0"!
1#!
1$!
0%!
1&!
0'!
1(!
0)!
1*!
1+!
1,!
1-!
1.!
1/!
00!
01!
02!
13!
04!
15!
16!
17!
18!
19!
0:!
0;!
0<!
0=!
0>!
1?!
1@!
0A!
0B!
0C!
1D!
0E!
0F!
0G!
1H!
0I!
0J!
0K!
1L!
0M!
0N!
0O!
1P!
0Q!
0R!
0S!
1T!
0U!
0V!
0W!
1X!
0Y!
0Z!
0[!
1\!
0]!
0^!
0_!
1`!
0a!
0b!
0c!
1d!
0e!
0f!
0g!
1h!
0i!
0j!
0k!
1l!
0m!
0n!
0o!
1p!
0q!
0r!
0s!
1t!
0u!
0v!
0w!
1x!
0y!
0z!
0{!
1|!
0}!
0~!
0!"
1""
0#"
1$"
1%"
0&"
0F"
0E"
0D"
0C"
0B"
0A"
0@"
0?"
0>"
0="
0<"
0;"
0:"
09"
08"
07"
06"
05"
04"
03"
02"
01"
00"
0/"
0."
0-"
0,"
0+"
0*"
0)"
0("
0'"
0f"
0e"
0d"
0c"
0b"
0a"
0`"
0_"
0^"
0]"
0\"
0["
0Z"
0Y"
0X"
0W"
0V"
0U"
0T"
0S"
0R"
0Q"
0P"
0O"
0N"
0M"
0L"
0K"
0J"
0I"
0H"
0G"
$end
#100000
1#
14!
#200000
0#
04!
#300000
1#
14!
#400000
0#
04!
#500000
1#
14!
#600000
0#
04!
#700000
1#
14!
#800000
0#
04!
#900000
1#
14!
