code6/code6/simulation/qsim/py_1810_6.msim.vcd
$comment
	File created using the following command:
		vcd file py_1810_6.msim.vcd -direction
$end
$date
	Mon May 06 21:01:20 2024
$end
$version
	ModelSim Version 10.5b
$end
$timescale
	1ps
$end

$scope module py_1810_6_vlg_vec_tst $end
$var reg 1 ! clk $end
$var reg 1 " en $end
$var wire 1 # DIG [3] $end
$var wire 1 $ DIG [2] $end
$var wire 1 % DIG [1] $end
$var wire 1 & DIG [0] $end
$var wire 1 ' Q [1] $end
$var wire 1 ( Q [0] $end
$var wire 1 ) Y [3] $end
$var wire 1 * Y [2] $end
$var wire 1 + Y [1] $end
$var wire 1 , Y [0] $end
$var wire 1 - codeout [6] $end
$var wire 1 . codeout [5] $end
$var wire 1 / codeout [4] $end
$var wire 1 0 codeout [3] $end
$var wire 1 1 codeout [2] $end
$var wire 1 2 codeout [1] $end
$var wire 1 3 codeout [0] $end
$var wire 1 4 seg [3] $end
$var wire 1 5 seg [2] $end
$var wire 1 6 seg [1] $end
$var wire 1 7 seg [0] $end

$scope module i1 $end
$var wire 1 8 gnd $end
$var wire 1 9 vcc $end
$var wire 1 : unknown $end
$var tri1 1 ; devclrn $end
$var tri1 1 < devpor $end
$var tri1 1 = devoe $end
$var wire 1 > DIG[0]~output_o $end
$var wire 1 ? DIG[1]~output_o $end
$var wire 1 @ DIG[2]~output_o $end
$var wire 1 A DIG[3]~output_o $end
$var wire 1 B seg[0]~output_o $end
$var wire 1 C seg[1]~output_o $end
$var wire 1 D seg[2]~output_o $end
$var wire 1 E seg[3]~output_o $end
$var wire 1 F codeout[0]~output_o $end
$var wire 1 G codeout[1]~output_o $end
$var wire 1 H codeout[2]~output_o $end
$var wire 1 I codeout[3]~output_o $end
$var wire 1 J codeout[4]~output_o $end
$var wire 1 K codeout[5]~output_o $end
$var wire 1 L codeout[6]~output_o $end
$var wire 1 M Y[0]~output_o $end
$var wire 1 N Y[1]~output_o $end
$var wire 1 O Y[2]~output_o $end
$var wire 1 P Y[3]~output_o $end
$var wire 1 Q Q[0]~output_o $end
$var wire 1 R Q[1]~output_o $end
$var wire 1 S clk~input_o $end
$var wire 1 T clk~inputclkctrl_outclk $end
$var wire 1 U en~input_o $end
$var wire 1 V a|Q[0]~0_combout $end
$var wire 1 W a|Q[1]~1_combout $end
$var wire 1 X b|Decoder0~0_combout $end
$var wire 1 Y b|Decoder0~1_combout $end
$var wire 1 Z b|Decoder0~2_combout $end
$var wire 1 [ a|Q [1] $end
$var wire 1 \ a|Q [0] $end
$upscope $end
$upscope $end
$enddefinitions $end
#0
$dumpvars
0!
1"
0&
0%
0$
0#
0(
0'
0,
0+
0*
0)
03
12
11
00
0/
0.
0-
07
06
05
04
08
19
x:
1;
1<
1=
0>
0?
0@
0A
0B
0C
0D
0E
0F
1G
1H
0I
0J
0K
0L
0M
0N
0O
0P
0Q
0R
0S
0T
1U
1V
0W
0X
0Y
0Z
0\
0[
$end
#10000
1!
1S
1T
1\
1Q
1(
1X
1W
0V
0H
0G
1?
1M
1,
1%
02
01
#20000
0!
0S
0T
#30000
1!
1S
1T
1[
0\
0Q
1R
1'
0(
1Y
0X
1V
1H
1G
0?
0M
1@
1F
1P
1)
13
1$
0,
0%
12
11
#40000
0!
0S
0T
#50000
1!
1S
1T
1\
1Q
1(
1Z
0Y
0W
0V
0@
0F
0P
1A
1#
0)
03
0$
#60000
0!
0S
0T
#70000
1!
1S
1T
0[
0\
0Q
0R
0'
0(
0Z
1V
0A
0#
#80000
0!
0S
0T
#90000
1!
1S
1T
1\
1Q
1(
1X
1W
0V
0H
0G
1?
1M
1,
1%
02
01
#100000
0!
0S
0T
#110000
1!
1S
1T
1[
0\
0Q
1R
1'
0(
1Y
0X
1V
1H
1G
0?
0M
1@
1F
1P
1)
13
1$
0,
0%
12
11
#120000
0!
0S
0T
#130000
1!
1S
1T
1\
1Q
1(
1Z
0Y
0W
0V
0@
0F
0P
1A
1#
0)
03
0$
#140000
0!
0S
0T
#150000
1!
1S
1T
0[
0\
0Q
0R
0'
0(
0Z
1V
0A
0#
#160000
0!
0S
0T
#170000
1!
1S
1T
1\
1Q
1(
1X
1W
0V
0H
0G
1?
1M
1,
1%
02
01
#180000
0!
0S
0T
#190000
1!
1S
1T
1[
0\
0Q
1R
1'
0(
1Y
0X
1V
1H
1G
0?
0M
1@
1F
1P
1)
13
1$
0,
0%
12
11
#200000
0!
0S
0T
#210000
1!
1S
1T
1\
1Q
1(
1Z
0Y
0W
0V
0@
0F
0P
1A
1#
0)
03
0$
#220000
0!
0S
0T
#230000
1!
1S
1T
0[
0\
0Q
0R
0'
0(
0Z
1V
0A
0#
#240000
0!
0S
0T
#250000
1!
1S
1T
1\
1Q
1(
1X
1W
0V
0H
0G
1?
1M
1,
1%
02
01
#260000
0!
0S
0T
#270000
1!
1S
1T
1[
0\
0Q
1R
1'
0(
1Y
0X
1V
1H
1G
0?
0M
1@
1F
1P
1)
13
1$
0,
0%
12
11
#280000
0!
0S
0T
#290000
1!
1S
1T
1\
1Q
1(
1Z
0Y
0W
0V
0@
0F
0P
1A
1#
0)
03
0$
#300000
0!
0S
0T
#310000
1!
1S
1T
0[
0\
0Q
0R
0'
0(
0Z
1V
0A
0#
#320000
0!
0S
0T
#330000
1!
1S
1T
1\
1Q
1(
1X
1W
0V
0H
0G
1?
1M
1,
1%
02
01
#340000
0!
0S
0T
#350000
1!
1S
1T
1[
0\
0Q
1R
1'
0(
1Y
0X
1V
1H
1G
0?
0M
1@
1F
1P
1)
13
1$
0,
0%
12
11
#360000
0!
0S
0T
#370000
1!
1S
1T
1\
1Q
1(
1Z
0Y
0W
0V
0@
0F
0P
1A
1#
0)
03
0$
#380000
0!
0S
0T
#390000
1!
1S
1T
0[
0\
0Q
0R
0'
0(
0Z
1V
0A
0#
#400000
0!
0S
0T
#410000
1!
1S
1T
1\
1Q
1(
1X
1W
0V
0H
0G
1?
1M
1,
1%
02
01
#420000
0!
0S
0T
#430000
1!
1S
1T
1[
0\
0Q
1R
1'
0(
1Y
0X
1V
1H
1G
0?
0M
1@
1F
1P
1)
13
1$
0,
0%
12
11
#440000
0!
0S
0T
#450000
1!
1S
1T
1\
1Q
1(
1Z
0Y
0W
0V
0@
0F
0P
1A
1#
0)
03
0$
#460000
0!
0S
0T
#470000
1!
1S
1T
0[
0\
0Q
0R
0'
0(
0Z
1V
0A
0#
#480000
0!
0S
0T
#490000
1!
1S
1T
1\
1Q
1(
1X
1W
0V
0H
0G
1?
1M
1,
1%
02
01
#500000
0!
0S
0T
#510000
1!
1S
1T
1[
0\
0Q
1R
1'
0(
1Y
0X
1V
1H
1G
0?
0M
1@
1F
1P
1)
13
1$
0,
0%
12
11
#520000
0!
0S
0T
#530000
1!
1S
1T
1\
1Q
1(
1Z
0Y
0W
0V
0@
0F
0P
1A
1#
0)
03
0$
#540000
0!
0S
0T
#550000
1!
1S
1T
0[
0\
0Q
0R
0'
0(
0Z
1V
0A
0#
#560000
0!
0S
0T
#570000
1!
1S
1T
1\
1Q
1(
1X
1W
0V
0H
0G
1?
1M
1,
1%
02
01
#580000
0!
0S
0T
#590000
1!
1S
1T
1[
0\
0Q
1R
1'
0(
1Y
0X
1V
1H
1G
0?
0M
1@
1F
1P
1)
13
1$
0,
0%
12
11
#600000
0!
0S
0T
#610000
1!
1S
1T
1\
1Q
1(
1Z
0Y
0W
0V
0@
0F
0P
1A
1#
0)
03
0$
#620000
0!
0S
0T
#630000
1!
1S
1T
0[
0\
0Q
0R
0'
0(
0Z
1V
0A
0#
#640000
0!
0S
0T
#650000
1!
1S
1T
1\
1Q
1(
1X
1W
0V
0H
0G
1?
1M
1,
1%
02
01
#660000
0!
0S
0T
#670000
1!
1S
1T
1[
0\
0Q
1R
1'
0(
1Y
0X
1V
1H
1G
0?
0M
1@
1F
1P
1)
13
1$
0,
0%
12
11
#680000
0!
0S
0T
#690000
1!
1S
1T
1\
1Q
1(
1Z
0Y
0W
0V
0@
0F
0P
1A
1#
0)
03
0$
#700000
0!
0S
0T
#710000
1!
1S
1T
0[
0\
0Q
0R
0'
0(
0Z
1V
0A
0#
#720000
0!
0S
0T
#730000
1!
1S
1T
1\
1Q
1(
1X
1W
0V
0H
0G
1?
1M
1,
1%
02
01
#740000
0!
0S
0T
#750000
1!
1S
1T
1[
0\
0Q
1R
1'
0(
1Y
0X
1V
1H
1G
0?
0M
1@
1F
1P
1)
13
1$
0,
0%
12
11
#760000
0!
0S
0T
#770000
1!
1S
1T
1\
1Q
1(
1Z
0Y
0W
0V
0@
0F
0P
1A
1#
0)
03
0$
#780000
0!
0S
0T
#790000
1!
1S
1T
0[
0\
0Q
0R
0'
0(
0Z
1V
0A
0#
#800000
0!
0S
0T
#810000
1!
1S
1T
1\
1Q
1(
1X
1W
0V
0H
0G
1?
1M
1,
1%
02
01
#820000
0!
0S
0T
#830000
1!
1S
1T
1[
0\
0Q
1R
1'
0(
1Y
0X
1V
1H
1G
0?
0M
1@
1F
1P
1)
13
1$
0,
0%
12
11
#840000
0!
0S
0T
#850000
1!
1S
1T
1\
1Q
1(
1Z
0Y
0W
0V
0@
0F
0P
1A
1#
0)
03
0$
#860000
0!
0S
0T
#870000
1!
1S
1T
0[
0\
0Q
0R
0'
0(
0Z
1V
0A
0#
#880000
0!
0S
0T
#890000
1!
1S
1T
1\
1Q
1(
1X
1W
0V
0H
0G
1?
1M
1,
1%
02
01
#900000
0!
0S
0T
#910000
1!
1S
1T
1[
0\
0Q
1R
1'
0(
1Y
0X
1V
1H
1G
0?
0M
1@
1F
1P
1)
13
1$
0,
0%
12
11
#920000
0!
0S
0T
#930000
1!
1S
1T
1\
1Q
1(
1Z
0Y
0W
0V
0@
0F
0P
1A
1#
0)
03
0$
#940000
0!
0S
0T
#950000
1!
1S
1T
0[
0\
0Q
0R
0'
0(
0Z
1V
0A
0#
#960000
0!
0S
0T
#970000
1!
1S
1T
1\
1Q
1(
1X
1W
0V
0H
0G
1?
1M
1,
1%
02
01
#980000
0!
0S
0T
#990000
1!
1S
1T
1[
0\
0Q
1R
1'
0(
1Y
0X
1V
1H
1G
0?
0M
1@
1F
1P
1)
13
1$
0,
0%
12
11
