wys_1780_4/simulation/qsim/wys_1780_4.msim.vcd
$comment
	File created using the following command:
		vcd file wys_1780_4.msim.vcd -direction
$end
$date
	Thu Apr 18 14:05:33 2024
$end
$version
	ModelSim Version 10.5b
$end
$timescale
	1ps
$end

$scope module wys_1780_4_vlg_vec_tst $end
$var reg 1 ! clkin $end
$var reg 1 " clr $end
$var reg 4 # data [3:0] $end
$var reg 1 $ en $end
$var reg 1 % load $end
$var reg 1 & upd $end
$var wire 1 ' CO $end
$var wire 1 ( Q [3] $end
$var wire 1 ) Q [2] $end
$var wire 1 * Q [1] $end
$var wire 1 + Q [0] $end

$scope module i1 $end
$var wire 1 , gnd $end
$var wire 1 - vcc $end
$var wire 1 . unknown $end
$var tri1 1 / devclrn $end
$var tri1 1 0 devpor $end
$var tri1 1 1 devoe $end
$var wire 1 2 Q[0]~output_o $end
$var wire 1 3 Q[1]~output_o $end
$var wire 1 4 Q[2]~output_o $end
$var wire 1 5 Q[3]~output_o $end
$var wire 1 6 CO~output_o $end
$var wire 1 7 clkin~input_o $end
$var wire 1 8 clkin~inputclkctrl_outclk $end
$var wire 1 9 load~input_o $end
$var wire 1 : data[0]~input_o $end
$var wire 1 ; Q~1_combout $end
$var wire 1 < clr~input_o $end
$var wire 1 = clr~inputclkctrl_outclk $end
$var wire 1 > en~input_o $end
$var wire 1 ? Q[0]~2_combout $end
$var wire 1 @ Q[0]~reg0_q $end
$var wire 1 A data[2]~input_o $end
$var wire 1 B upd~input_o $end
$var wire 1 C Add0~1_cout $end
$var wire 1 D Add0~3 $end
$var wire 1 E Add0~5_combout $end
$var wire 1 F Add0~7_combout $end
$var wire 1 G Q[2]~reg0_q $end
$var wire 1 H CO~3_combout $end
$var wire 1 I Add0~6 $end
$var wire 1 J Add0~8_combout $end
$var wire 1 K Q[3]~0_combout $end
$var wire 1 L data[3]~input_o $end
$var wire 1 M Q[3]~reg0_q $end
$var wire 1 N Q~3_combout $end
$var wire 1 O data[1]~input_o $end
$var wire 1 P Add0~2_combout $end
$var wire 1 Q Add0~4_combout $end
$var wire 1 R Q[1]~reg0_q $end
$var wire 1 S CO~2_combout $end
$var wire 1 T CO~4_combout $end
$upscope $end
$upscope $end
$enddefinitions $end
#0
$dumpvars
0!
1"
b0 #
1$
1%
0&
1'
0+
0*
0)
0(
0,
1-
x.
1/
10
11
02
03
04
05
16
07
08
19
0:
1;
1<
1=
1>
1?
0@
0A
0B
0C
1D
1E
0F
0G
1H
0I
1J
1K
0L
0M
1N
0O
1P
0Q
0R
1S
1T
$end
#10000
1!
17
18
1M
1@
12
15
0S
0N
0J
1C
1(
1+
0;
0D
0P
0T
1Q
0K
1F
06
1I
0E
0'
0Q
1J
0F
1K
#20000
0!
07
08
#30000
1!
17
18
0@
02
0C
0+
1;
1D
1P
0I
1E
1Q
0J
1F
0K
#40000
0!
07
08
#50000
0%
b100 #
b110 #
b111 #
1!
09
1:
1O
1A
17
18
1R
0M
1G
1@
12
14
05
13
0H
0D
0P
1J
1I
0E
1C
1*
0(
1)
1+
1E
0J
1P
1K
0K
#60000
0!
07
08
#70000
1!
17
18
#80000
0!
07
08
#90000
1!
17
18
#100000
0!
07
08
#110000
1!
17
18
#120000
1%
b11 #
b1 #
b0 #
0!
19
0:
0O
0A
07
08
0;
#130000
1!
17
18
0@
02
1S
0C
0+
1;
0P
0Q
#140000
0!
07
08
#150000
1!
17
18
0R
1@
12
03
1D
1P
0S
1C
0*
1+
0;
0E
0D
0P
1Q
1E
0F
0Q
1F
#160000
0!
07
08
#170000
1!
17
18
0@
02
1S
0C
0+
1;
1D
1P
0E
1Q
0F
#180000
0!
07
08
#190000
1!
17
18
1R
0G
1@
12
04
13
0D
0P
0I
1E
0S
1C
1*
0)
1+
0;
1I
0E
1J
1P
0Q
1F
0J
0F
1K
1Q
0K
#200000
0!
07
08
#210000
1!
17
18
0@
02
1S
0C
0+
1;
0P
0Q
#220000
0!
07
08
#230000
1!
17
18
0R
1@
12
03
1H
1D
1P
0S
1C
0*
1+
1T
0;
16
0I
1E
0D
0P
1'
1Q
0T
06
1J
1I
0E
0'
1F
0Q
0J
1K
0F
0K
#240000
0!
07
08
#250000
1!
17
18
0@
02
1S
1N
0C
0+
1;
1D
1P
1T
1K
16
0I
1E
1'
1J
#260000
0!
07
08
#270000
1!
17
18
1M
1@
12
15
0S
0N
0J
1C
1(
1+
0;
0D
0P
0T
1Q
0K
1F
06
1I
0E
0'
0Q
1J
0F
1K
#280000
0!
07
08
#290000
1!
17
18
0@
02
0C
0+
1;
1D
1P
0I
1E
1Q
0J
1F
0K
#300000
0!
07
08
#310000
1!
17
18
1R
0M
1G
1@
12
14
05
13
0H
0D
0P
1J
1I
0E
1C
1*
0(
1)
1+
0;
1E
0J
1P
0Q
1K
0F
1F
0K
1Q
#320000
0!
07
08
#330000
1!
17
18
0@
02
1S
0C
0+
1;
0P
0Q
#340000
0!
07
08
#350000
1!
17
18
0R
1@
12
03
1D
1P
0S
1C
0*
1+
0;
0E
0D
0P
1Q
1E
0F
0Q
1F
#360000
0!
07
08
#370000
1!
17
18
0@
02
1S
0C
0+
1;
1D
1P
0E
1Q
0F
#380000
0!
07
08
#390000
1!
17
18
1R
0G
1@
12
04
13
0D
0P
0I
1E
0S
1C
1*
0)
1+
0;
1I
0E
1J
1P
0Q
1F
0J
0F
1K
1Q
0K
#400000
0!
07
08
#410000
1!
17
18
0@
02
1S
0C
0+
1;
0P
0Q
#420000
0!
07
08
#430000
1!
17
18
0R
1@
12
03
1H
1D
1P
0S
1C
0*
1+
1T
0;
16
0I
1E
0D
0P
1'
1Q
0T
06
1J
1I
0E
0'
1F
0Q
0J
1K
0F
0K
#440000
0!
07
08
#450000
1!
17
18
0@
02
1S
1N
0C
0+
1;
1D
1P
1T
1K
16
0I
1E
1'
1J
#460000
0!
07
08
#470000
1!
17
18
1M
1@
12
15
0S
0N
0J
1C
1(
1+
0;
0D
0P
0T
1Q
0K
1F
06
1I
0E
0'
0Q
1J
0F
1K
#480000
0!
07
08
#490000
1!
17
18
0@
02
0C
0+
1;
1D
1P
0I
1E
1Q
0J
1F
0K
#500000
0!
07
08
#510000
1!
17
18
1R
0M
1G
1@
12
14
05
13
0H
0D
0P
1J
1I
0E
1C
1*
0(
1)
1+
0;
1E
0J
1P
0Q
1K
0F
1F
0K
1Q
#520000
0!
07
08
#530000
1!
17
18
0@
02
1S
0C
0+
1;
0P
0Q
#540000
0!
07
08
#550000
1!
17
18
0R
1@
12
03
1D
1P
0S
1C
0*
1+
0;
0E
0D
0P
1Q
1E
0F
0Q
1F
#560000
0!
07
08
#570000
1!
17
18
0@
02
1S
0C
0+
1;
1D
1P
0E
1Q
0F
#580000
0!
07
08
#590000
1!
17
18
1R
0G
1@
12
04
13
0D
0P
0I
1E
0S
1C
1*
0)
1+
0;
1I
0E
1J
1P
0Q
1F
0J
0F
1K
1Q
0K
#600000
0!
07
08
#610000
1!
17
18
0@
02
1S
0C
0+
1;
0P
0Q
#620000
0!
07
08
#630000
1!
17
18
0R
1@
12
03
1H
1D
1P
0S
1C
0*
1+
1T
0;
16
0I
1E
0D
0P
1'
1Q
0T
06
1J
1I
0E
0'
1F
0Q
0J
1K
0F
0K
#640000
0!
07
08
#650000
1!
17
18
0@
02
1S
1N
0C
0+
1;
1D
1P
1T
1K
16
0I
1E
1'
1J
#660000
0!
07
08
#670000
1!
17
18
1M
1@
12
15
0S
0N
0J
1C
1(
1+
0;
0D
0P
0T
1Q
0K
1F
06
1I
0E
0'
0Q
1J
0F
1K
#680000
0!
07
08
#690000
1!
17
18
0@
02
0C
0+
1;
1D
1P
0I
1E
1Q
0J
1F
0K
#700000
0!
07
08
#710000
1!
17
18
1R
0M
1G
1@
12
14
05
13
0H
0D
0P
1J
1I
0E
1C
1*
0(
1)
1+
0;
1E
0J
1P
0Q
1K
0F
1F
0K
1Q
#720000
0!
07
08
#730000
1!
17
18
0@
02
1S
0C
0+
1;
0P
0Q
#740000
0!
07
08
#750000
1!
17
18
0R
1@
12
03
1D
1P
0S
1C
0*
1+
0;
0E
0D
0P
1Q
1E
0F
0Q
1F
#760000
0!
07
08
#770000
1!
17
18
0@
02
1S
0C
0+
1;
1D
1P
0E
1Q
0F
#780000
0!
07
08
#790000
1!
17
18
1R
0G
1@
12
04
13
0D
0P
0I
1E
0S
1C
1*
0)
1+
0;
1I
0E
1J
1P
0Q
1F
0J
0F
1K
1Q
0K
#800000
0!
07
08
#810000
1!
17
18
0@
02
1S
0C
0+
1;
0P
0Q
#820000
0!
07
08
#830000
1!
17
18
0R
1@
12
03
1H
1D
1P
0S
1C
0*
1+
1T
0;
16
0I
1E
0D
0P
1'
1Q
0T
06
1J
1I
0E
0'
1F
0Q
0J
1K
0F
0K
#840000
0!
07
08
#850000
1!
17
18
0@
02
1S
1N
0C
0+
1;
1D
1P
1T
1K
16
0I
1E
1'
1J
#860000
0!
07
08
#870000
1!
17
18
1M
1@
12
15
0S
0N
0J
1C
1(
1+
0;
0D
0P
0T
1Q
0K
1F
06
1I
0E
0'
0Q
1J
0F
1K
#880000
0!
07
08
#890000
1!
17
18
0@
02
0C
0+
1;
1D
1P
0I
1E
1Q
0J
1F
0K
#900000
0!
07
08
#910000
1!
17
18
1R
0M
1G
1@
12
14
05
13
0H
0D
0P
1J
1I
0E
1C
1*
0(
1)
1+
0;
1E
0J
1P
0Q
1K
0F
1F
0K
1Q
#920000
0!
07
08
#930000
1!
17
18
0@
02
1S
0C
0+
1;
0P
0Q
#940000
0!
07
08
#950000
1!
17
18
0R
1@
12
03
1D
1P
0S
1C
0*
1+
0;
0E
0D
0P
1Q
1E
0F
0Q
1F
#960000
0!
07
08
#970000
1!
17
18
0@
02
1S
0C
0+
1;
1D
1P
0E
1Q
0F
#980000
0!
07
08
#990000
1!
17
18
1R
0G
1@
12
04
13
0D
0P
0I
1E
0S
1C
1*
0)
1+
0;
1I
0E
1J
1P
0Q
1F
0J
0F
1K
1Q
0K
