wys_1780_chap_2_4_4/simulation/qsim/_1780_chap2_4_4.msim.vcd
$comment
	File created using the following command:
		vcd file _1780_chap2_4_4.msim.vcd -direction
$end
$date
	Wed Mar 27 13:38:49 2024
$end
$version
	ModelSim Version 10.5b
$end
$timescale
	1ps
$end

$scope module _1780_chap2_4_4_vlg_vec_tst $end
$var reg 1 ! A $end
$var reg 1 " B $end
$var reg 1 # SEL $end
$var wire 1 $ L $end

$scope module i1 $end
$var wire 1 % gnd $end
$var wire 1 & vcc $end
$var wire 1 ' unknown $end
$var tri1 1 ( devclrn $end
$var tri1 1 ) devpor $end
$var tri1 1 * devoe $end
$var wire 1 + L~output_o $end
$var wire 1 , B~input_o $end
$var wire 1 - SEL~input_o $end
$var wire 1 . A~input_o $end
$var wire 1 / L~0_combout $end
$upscope $end
$upscope $end
$enddefinitions $end
#0
$dumpvars
0!
0"
0#
0$
0%
1&
x'
1(
1)
1*
0+
0,
0-
0.
0/
$end
#30000
1"
1,
#50000
1!
1.
1/
1+
1$
#60000
0"
0,
#90000
1"
1,
#100000
1#
0!
1-
0.
#120000
0"
0,
0/
0+
0$
#150000
1!
1"
1.
1,
1/
1+
1$
#180000
0"
0,
0/
0+
0$
#200000
0#
0!
0-
0.
#210000
1"
1,
#240000
0"
0,
#250000
1!
1.
1/
1+
1$
#270000
1"
1,
#300000
1#
0!
0"
1-
0.
0,
0/
0+
0$
#330000
1"
1,
1/
1+
1$
#350000
1!
1.
#360000
0"
0,
0/
0+
0$
#390000
1"
1,
1/
1+
1$
#400000
0#
0!
0-
0.
0/
0+
0$
#420000
0"
0,
#450000
1!
1"
1.
1,
1/
1+
1$
#480000
0"
0,
#500000
1#
0!
1-
0.
0/
0+
0$
#510000
1"
1,
1/
1+
1$
#540000
0"
0,
0/
0+
0$
#550000
1!
1.
#570000
1"
1,
1/
1+
1$
#600000
0#
0!
0"
0-
0.
0,
0/
0+
0$
#630000
1"
1,
#650000
1!
1.
1/
1+
1$
#660000
0"
0,
#690000
1"
1,
#700000
1#
0!
1-
0.
#720000
0"
0,
0/
0+
0$
#750000
1!
1"
1.
1,
1/
1+
1$
#780000
0"
0,
0/
0+
0$
#800000
0#
0!
0-
0.
#810000
1"
1,
#840000
0"
0,
#850000
1!
1.
1/
1+
1$
#870000
1"
1,
#900000
1#
0!
0"
1-
0.
0,
0/
0+
0$
#930000
1"
1,
1/
1+
1$
#950000
1!
1.
#960000
0"
0,
0/
0+
0$
#990000
1"
1,
1/
1+
1$
